{
  "data": [
    {
      "id": "w8lr6r",
      "url": "https://wallhaven.cc/w/w8lr6r",
      "short_url": "https://whvn.cc/w8lr6r",
      "views": 3995,
      "favorites": 19,
      "source": "",
      "purity": "sfw",
      "category": "anime",
      "dimension_x": 1920,
      "dimension_y": 1080,
      "resolution": "1920x1080",
      "ratio": "1.78",
      "file_size": 211094,
      "file_type": "image/jpeg",
      "created_at": "2016-10-30 00:50:14",
      "colors": [
        "#ffffff",
        "#000000",
        "#999999",
        "#424153",
        "#e7d8b1"
      ],
      "path": "https://w.wallhaven.cc/full/w8/wallhaven-w8lr6r.jpg",
      "thumbs": {
        "large": "https://th.wallhaven.cc/lg/w8/w8lr6r.jpg",
        "original": "https://th.wallhaven.cc/orig/w8/w8lr6r.jpg",
        "small": "https://th.wallhaven.cc/small/w8/w8lr6r.jpg"
      }
    },
    {
      "id": "j32jxw",
      "url": "https://wallhaven.cc/w/j32jxw",
      "short_url": "https://whvn.cc/j32jxw",
      "views": 890,
      "favorites": 11,
      "source": "",
      "purity": "sfw",
      "category": "anime",
      "dimension_x": 7680,
      "dimension_y": 4320,
      "resolution": "7680x4320",
      "ratio": "1.78",
      "file_size": 10536430,
      "file_type": "image/png",
      "created_at": "2022-07-31 15:05:32",
      "colors": [
        "#424153",
        "#999999",
        "#ffffff",
        "#cccccc",
        "#663399"
      ],
      "path": "https://w.wallhaven.cc/full/j3/wallhaven-j32jxw.png",
      "thumbs": {
        "large": "https://th.wallhaven.cc/lg/j3/j32jxw.jpg",
        "original": "https://th.wallhaven.cc/orig/j3/j32jxw.jpg",
        "small": "https://th.wallhaven.cc/small/j3/j32jxw.jpg"
      }
    },
    {
      "id": "wy6wgq",
      "url": "https://wallhaven.cc/w/wy6wgq",
      "short_url": "https://whvn.cc/wy6wgq",
      "views": 2205,
      "favorites": 15,
      "source": "",
      "purity": "sfw",
      "category": "anime",
      "dimension_x": 1920,
      "dimension_y": 1080,
      "resolution": "1920x1080",
      "ratio": "1.78",
      "file_size": 884347,
      "file_type": "image/png",
      "created_at": "2019-05-01 21:47:55",
      "colors": [
        "#ffffff",
        "#999999",
        "#fdadc7",
        "#e7d8b1",
        "#cccccc"
      ],
      "path": "https://w.wallhaven.cc/full/wy/wallhaven-wy6wgq.png",
      "thumbs": {
        "large": "https://th.wallhaven.cc/lg/wy/wy6wgq.jpg",
        "original": "https://th.wallhaven.cc/orig/wy/wy6wgq.jpg",
        "small": "https://th.wallhaven.cc/small/wy/wy6wgq.jpg"
      }
    },
    {
      "id": "k77jld",
      "url": "https://wallhaven.cc/w/k77jld",
      "short_url": "https://whvn.cc/k77jld",
      "views": 2855,
      "favorites": 11,
      "source": "https://bunny.sempai.com",
      "purity": "sfw",
      "category": "anime",
      "dimension_x": 1920,
      "dimension_y": 1080,
      "resolution": "1920x1080",
      "ratio": "1.78",
      "file_size": 251393,
      "file_type": "image/jpeg",
      "created_at": "2021-02-19 18:14:53",
      "colors": [
        "#000000",
        "#424153",
        "#abbcda",
        "#999999",
        "#ffffff"
      ],
      "path": "https://w.wallhaven.cc/full/k7/wallhaven-k77jld.jpg",
      "thumbs": {
        "large": "https://th.wallhaven.cc/lg/k7/k77jld.jpg",
        "original": "https://th.wallhaven.cc/orig/k7/k77jld.jpg",
        "small": "https://th.wallhaven.cc/small/k7/k77jld.jpg"
      }
    },
    {
      "id": "v981qm",
      "url": "https://wallhaven.cc/w/v981qm",
      "short_url": "https://whvn.cc/v981qm",
      "views": 1010,
      "favorites": 13,
      "source": "",
      "purity": "sfw",
      "category": "anime",
      "dimension_x": 7680,
      "dimension_y": 4320,
      "resolution": "7680x4320",
      "ratio": "1.78",
      "file_size": 18519119,
      "file_type": "image/png",
      "created_at": "2022-07-31 14:59:41",
      "colors": [
        "#424153",
        "#999999",
        "#000000",
        "#cccccc",
        "#abbcda"
      ],
      "path": "https://w.wallhaven.cc/full/v9/wallhaven-v981qm.png",
      "thumbs": {
        "large": "https://th.wallhaven.cc/lg/v9/v981qm.jpg",
        "original": "https://th.wallhaven.cc/orig/v9/v981qm.jpg",
        "small": "https://th.wallhaven.cc/small/v9/v981qm.jpg"
      }
    },
    {
      "id": "96z58x",
      "url": "https://wallhaven.cc/w/96z58x",
      "short_url": "https://whvn.cc/96z58x",
      "views": 2335,
      "favorites": 21,
      "source": "",
      "purity": "sfw",
      "category": "anime",
      "dimension_x": 3840,
      "dimension_y": 2160,
      "resolution": "3840x2160",
      "ratio": "1.78",
      "file_size": 8454350,
      "file_type": "image/png",
      "created_at": "2019-02-20 13:36:31",
      "colors": [
        "#424153",
        "#ffffff",
        "#999999",
        "#000000",
        "#cccccc"
      ],
      "path": "https://w.wallhaven.cc/full/96/wallhaven-96z58x.png",
      "thumbs": {
        "large": "https://th.wallhaven.cc/lg/96/96z58x.jpg",
        "original": "https://th.wallhaven.cc/orig/96/96z58x.jpg",
        "small": "https://th.wallhaven.cc/small/96/96z58x.jpg"
      }
    },
    {
      "id": "ymw7px",
      "url": "https://wallhaven.cc/w/ymw7px",
      "short_url": "https://whvn.cc/ymw7px",
      "views": 1298,
      "favorites": 8,
      "source": "",
      "purity": "sfw",
      "category": "anime",
      "dimension_x": 1920,
      "dimension_y": 1080,
      "resolution": "1920x1080",
      "ratio": "1.78",
      "file_size": 2161005,
      "file_type": "image/png",
      "created_at": "2019-11-09 05:06:27",
      "colors": [
        "#424153",
        "#333399",
        "#663399",
        "#e7d8b1",
        "#abbcda"
      ],
      "path": "https://w.wallhaven.cc/full/ym/wallhaven-ymw7px.png",
      "thumbs": {
        "large": "https://th.wallhaven.cc/lg/ym/ymw7px.jpg",
        "original": "https://th.wallhaven.cc/orig/ym/ymw7px.jpg",
        "small": "https://th.wallhaven.cc/small/ym/ymw7px.jpg"
      }
    },
    {
      "id": "eyrx5w",
      "url": "https://wallhaven.cc/w/eyrx5w",
      "short_url": "https://whvn.cc/eyrx5w",
      "views": 1394,
      "favorites": 5,
      "source": "",
      "purity": "sfw",
      "category": "anime",
      "dimension_x": 1920,
      "dimension_y": 1080,
      "resolution": "1920x1080",
      "ratio": "1.78",
      "file_size": 2608947,
      "file_type": "image/jpeg",
      "created_at": "2019-11-15 17:08:05",
      "colors": [
        "#000000",
        "#424153",
        "#996633",
        "#66cccc",
        "#663300"
      ],
      "path": "https://w.wallhaven.cc/full/ey/wallhaven-eyrx5w.jpg",
      "thumbs": {
        "large": "https://th.wallhaven.cc/lg/ey/eyrx5w.jpg",
        "original": "https://th.wallhaven.cc/orig/ey/eyrx5w.jpg",
        "small": "https://th.wallhaven.cc/small/ey/eyrx5w.jpg"
      }
    },
    {
      "id": "w88vwr",
      "url": "https://wallhaven.cc/w/w88vwr",
      "short_url": "https://whvn.cc/w88vwr",
      "views": 2295,
      "favorites": 10,
      "source": "",
      "purity": "sfw",
      "category": "anime",
      "dimension_x": 1920,
      "dimension_y": 1080,
      "resolution": "1920x1080",
      "ratio": "1.78",
      "file_size": 386140,
      "file_type": "image/jpeg",
      "created_at": "2016-03-23 19:49:48",
      "colors": [
        "#cccccc",
        "#ffffff",
        "#fdadc7",
        "#999999",
        "#e7d8b1"
      ],
      "path": "https://w.wallhaven.cc/full/w8/wallhaven-w88vwr.jpg",
      "thumbs": {
        "large": "https://th.wallhaven.cc/lg/w8/w88vwr.jpg",
        "original": "https://th.wallhaven.cc/orig/w8/w88vwr.jpg",
        "small": "https://th.wallhaven.cc/small/w8/w88vwr.jpg"
      }
    },
    {
      "id": "l38lrp",
      "url": "https://wallhaven.cc/w/l38lrp",
      "short_url": "https://whvn.cc/l38lrp",
      "views": 2158,
      "favorites": 8,
      "source": "",
      "purity": "sfw",
      "category": "anime",
      "dimension_x": 1920,
      "dimension_y": 1080,
      "resolution": "1920x1080",
      "ratio": "1.78",
      "file_size": 271132,
      "file_type": "image/jpeg",
      "created_at": "2021-04-05 13:21:11",
      "colors": [
        "#424153",
        "#000000",
        "#66cccc",
        "#cccccc",
        "#999999"
      ],
      "path": "https://w.wallhaven.cc/full/l3/wallhaven-l38lrp.jpg",
      "thumbs": {
        "large": "https://th.wallhaven.cc/lg/l3/l38lrp.jpg",
        "original": "https://th.wallhaven.cc/orig/l3/l38lrp.jpg",
        "small": "https://th.wallhaven.cc/small/l3/l38lrp.jpg"
      }
    },
    {
      "id": "pkjlq9",
      "url": "https://wallhaven.cc/w/pkjlq9",
      "short_url": "https://whvn.cc/pkjlq9",
      "views": 1642,
      "favorites": 19,
      "source": "",
      "purity": "sfw",
      "category": "anime",
      "dimension_x": 1920,
      "dimension_y": 1080,
      "resolution": "1920x1080",
      "ratio": "1.78",
      "file_size": 2812633,
      "file_type": "image/png",
      "created_at": "2021-08-01 04:58:38",
      "colors": [
        "#000000",
        "#424153",
        "#333399",
        "#663399",
        "#abbcda"
      ],
      "path": "https://w.wallhaven.cc/full/pk/wallhaven-pkjlq9.png",
      "thumbs": {
        "large": "https://th.wallhaven.cc/lg/pk/pkjlq9.jpg",
        "original": "https://th.wallhaven.cc/orig/pk/pkjlq9.jpg",
        "small": "https://th.wallhaven.cc/small/pk/pkjlq9.jpg"
      }
    },
    {
      "id": "0wwojp",
      "url": "https://wallhaven.cc/w/0wwojp",
      "short_url": "https://whvn.cc/0wwojp",
      "views": 2569,
      "favorites": 12,
      "source": "",
      "purity": "sfw",
      "category": "anime",
      "dimension_x": 1920,
      "dimension_y": 1080,
      "resolution": "1920x1080",
      "ratio": "1.78",
      "file_size": 444638,
      "file_type": "image/jpeg",
      "created_at": "2015-03-17 21:54:32",
      "colors": [
        "#000000",
        "#663300",
        "#996633",
        "#cc6633",
        "#660000"
      ],
      "path": "https://w.wallhaven.cc/full/0w/wallhaven-0wwojp.jpg",
      "thumbs": {
        "large": "https://th.wallhaven.cc/lg/0w/0wwojp.jpg",
        "original": "https://th.wallhaven.cc/orig/0w/0wwojp.jpg",
        "small": "https://th.wallhaven.cc/small/0w/0wwojp.jpg"
      }
    },
    {
      "id": "8ozwo1",
      "url": "https://wallhaven.cc/w/8ozwo1",
      "short_url": "https://whvn.cc/8ozwo1",
      "views": 1082,
      "favorites": 11,
      "source": "",
      "purity": "sfw",
      "category": "anime",
      "dimension_x": 7680,
      "dimension_y": 4320,
      "resolution": "7680x4320",
      "ratio": "1.78",
      "file_size": 17152981,
      "file_type": "image/png",
      "created_at": "2022-07-31 14:59:40",
      "colors": [
        "#424153",
        "#e7d8b1",
        "#999999",
        "#996633",
        "#cc6633"
      ],
      "path": "https://w.wallhaven.cc/full/8o/wallhaven-8ozwo1.png",
      "thumbs": {
        "large": "https://th.wallhaven.cc/lg/8o/8ozwo1.jpg",
        "original": "https://th.wallhaven.cc/orig/8o/8ozwo1.jpg",
        "small": "https://th.wallhaven.cc/small/8o/8ozwo1.jpg"
      }
    },
    {
      "id": "n67kzl",
      "url": "https://wallhaven.cc/w/n67kzl",
      "short_url": "https://whvn.cc/n67kzl",
      "views": 5129,
      "favorites": 21,
      "source": "",
      "purity": "sfw",
      "category": "anime",
      "dimension_x": 1920,
      "dimension_y": 1080,
      "resolution": "1920x1080",
      "ratio": "1.78",
      "file_size": 553163,
      "file_type": "image/jpeg",
      "created_at": "2015-03-20 03:15:01",
      "colors": [
        "#424153",
        "#e7d8b1",
        "#999999",
        "#996633",
        "#cc6633"
      ],
      "path": "https://w.wallhaven.cc/full/n6/wallhaven-n67kzl.jpg",
      "thumbs": {
        "large": "https://th.wallhaven.cc/lg/n6/n67kzl.jpg",
        "original": "https://th.wallhaven.cc/orig/n6/n67kzl.jpg",
        "small": "https://th.wallhaven.cc/small/n6/n67kzl.jpg"
      }
    },
    {
      "id": "lq7qkl",
      "url": "https://wallhaven.cc/w/lq7qkl",
      "short_url": "https://whvn.cc/lq7qkl",
      "views": 2656,
      "favorites": 14,
      "source": "",
      "purity": "sfw",
      "category": "anime",
      "dimension_x": 1920,
      "dimension_y": 1080,
      "resolution": "1920x1080",
      "ratio": "1.78",
      "file_size": 2634798,
      "file_type": "image/jpeg",
      "created_at": "2017-07-22 10:51:47",
      "colors": [
        "#424153",
        "#999999",
        "#000000",
        "#cccccc",
        "#ea4c88"
      ],
      "path": "https://w.wallhaven.cc/full/lq/wallhaven-lq7qkl.jpg",
      "thumbs": {
        "large": "https://th.wallhaven.cc/lg/lq/lq7qkl.jpg",
        "original": "https://th.wallhaven.cc/orig/lq/lq7qkl.jpg",
        "small": "https://th.wallhaven.cc/small/lq/lq7qkl.jpg"
      }
    },
    {
      "id": "x8qgjo",
      "url": "https://wallhaven.cc/w/x8qgjo",
      "short_url": "https://whvn.cc/x8qgjo",
      "views": 784,
      "favorites": 4,
      "source": "",
      "purity": "sfw",
      "category": "anime",
      "dimension_x": 7680,
      "dimension_y": 4320,
      "resolution": "7680x4320",
      "ratio": "1.78",
      "file_size": 16763389,
      "file_type": "image/png",
      "created_at": "2022-08-01 15:19:02",
      "colors": [
        "#424153",
        "#999999",
        "#cccccc",
        "#ffffff",
        "#e7d8b1"
      ],
      "path": "https://w.wallhaven.cc/full/x8/wallhaven-x8qgjo.png",
      "thumbs": {
        "large": "https://th.wallhaven.cc/lg/x8/x8qgjo.jpg",
        "original": "https://th.wallhaven.cc/orig/x8/x8qgjo.jpg",
        "small": "https://th.wallhaven.cc/small/x8/x8qgjo.jpg"
      }
    },
    {
      "id": "76pe8v",
      "url": "https://wallhaven.cc/w/76pe8v",
      "short_url": "https://whvn.cc/76pe8v",
      "views": 1985,
      "favorites": 16,
      "source": "",
      "purity": "sfw",
      "category": "anime",
      "dimension_x": 1920,
      "dimension_y": 1080,
      "resolution": "1920x1080",
      "ratio": "1.78",
      "file_size": 107331,
      "file_type": "image/jpeg",
      "created_at": "2016-06-11 04:46:41",
      "colors": [
        "#ea4c88",
        "#424153",
        "#ffffff",
        "#993399",
        "#999999"
      ],
      "path": "https://w.wallhaven.cc/full/76/wallhaven-76pe8v.jpg",
      "thumbs": {
        "large": "https://th.wallhaven.cc/lg/76/76pe8v.jpg",
        "original": "https://th.wallhaven.cc/orig/76/76pe8v.jpg",
        "small": "https://th.wallhaven.cc/small/76/76pe8v.jpg"
      }
    },
    {
      "id": "131z89",
      "url": "https://wallhaven.cc/w/131z89",
      "short_url": "https://whvn.cc/131z89",
      "views": 4591,
      "favorites": 23,
      "source": "",
      "purity": "sfw",
      "category": "anime",
      "dimension_x": 1920,
      "dimension_y": 1080,
      "resolution": "1920x1080",
      "ratio": "1.78",
      "file_size": 237573,
      "file_type": "image/jpeg",
      "created_at": "2019-03-23 17:09:32",
      "colors": [
        "#000000",
        "#424153",
        "#cccccc",
        "#999999",
        "#abbcda"
      ],
      "path": "https://w.wallhaven.cc/full/13/wallhaven-131z89.jpg",
      "thumbs": {
        "large": "https://th.wallhaven.cc/lg/13/131z89.jpg",
        "original": "https://th.wallhaven.cc/orig/13/131z89.jpg",
        "small": "https://th.wallhaven.cc/small/13/131z89.jpg"
      }
    },
    {
      "id": "5d8y27",
      "url": "https://wallhaven.cc/w/5d8y27",
      "short_url": "https://whvn.cc/5d8y27",
      "views": 1560,
      "favorites": 6,
      "source": "",
      "purity": "sfw",
      "category": "anime",
      "dimension_x": 1920,
      "dimension_y": 1080,
      "resolution": "1920x1080",
      "ratio": "1.78",
      "file_size": 696342,
      "file_type": "image/jpeg",
      "created_at": "2017-07-29 01:52:27",
      "colors": [
        "#abbcda",
        "#999999",
        "#333399",
        "#000000",
        "#663399"
      ],
      "path": "https://w.wallhaven.cc/full/5d/wallhaven-5d8y27.jpg",
      "thumbs": {
        "large": "https://th.wallhaven.cc/lg/5d/5d8y27.jpg",
        "original": "https://th.wallhaven.cc/orig/5d/5d8y27.jpg",
        "small": "https://th.wallhaven.cc/small/5d/5d8y27.jpg"
      }
    },
    {
      "id": "g8zpol",
      "url": "https://wallhaven.cc/w/g8zpol",
      "short_url": "https://whvn.cc/g8zpol",
      "views": 1614,
      "favorites": 11,
      "source": "",
      "purity": "sfw",
      "category": "anime",
      "dimension_x": 1920,
      "dimension_y": 1080,
      "resolution": "1920x1080",
      "ratio": "1.78",
      "file_size": 1795982,
      "file_type": "image/jpeg",
      "created_at": "2018-06-18 18:15:43",
      "colors": [
        "#999999",
        "#424153",
        "#cccccc",
        "#abbcda",
        "#000000"
      ],
      "path": "https://w.wallhaven.cc/full/g8/wallhaven-g8zpol.jpg",
      "thumbs": {
        "large": "https://th.wallhaven.cc/lg/g8/g8zpol.jpg",
        "original": "https://th.wallhaven.cc/orig/g8/g8zpol.jpg",
        "small": "https://th.wallhaven.cc/small/g8/g8zpol.jpg"
      }
    },
    {
      "id": "j5kevy",
      "url": "https://wallhaven.cc/w/j5kevy",
      "short_url": "https://whvn.cc/j5kevy",
      "views": 1626,
      "favorites": 17,
      "source": "",
      "purity": "sfw",
      "category": "anime",
      "dimension_x": 3840,
      "dimension_y": 2160,
      "resolution": "3840x2160",
      "ratio": "1.78",
      "file_size": 16690125,
      "file_type": "image/png",
      "created_at": "2019-06-01 10:18:30",
      "colors": [
        "#424153",
        "#999999",
        "#ffffff",
        "#996633",
        "#cc3333"
      ],
      "path": "https://w.wallhaven.cc/full/j5/wallhaven-j5kevy.png",
      "thumbs": {
        "large": "https://th.wallhaven.cc/lg/j5/j5kevy.jpg",
        "original": "https://th.wallhaven.cc/orig/j5/j5kevy.jpg",
        "small": "https://th.wallhaven.cc/small/j5/j5kevy.jpg"
      }
    },
    {
      "id": "5d62d3",
      "url": "https://wallhaven.cc/w/5d62d3",
      "short_url": "https://whvn.cc/5d62d3",
      "views": 3326,
      "favorites": 7,
      "source": "",
      "purity": "sfw",
      "category": "anime",
      "dimension_x": 1920,
      "dimension_y": 1080,
      "resolution": "1920x1080",
      "ratio": "1.78",
      "file_size": 146085,
      "file_type": "image/png",
      "created_at": "2017-06-08 01:38:15",
      "colors": [
        "#66cccc",
        "#424153",
        "#000000",
        "#999999",
        "#e7d8b1"
      ],
      "path": "https://w.wallhaven.cc/full/5d/wallhaven-5d62d3.png",
      "thumbs": {
        "large": "https://th.wallhaven.cc/lg/5d/5d62d3.jpg",
        "original": "https://th.wallhaven.cc/orig/5d/5d62d3.jpg",
        "small": "https://th.wallhaven.cc/small/5d/5d62d3.jpg"
      }
    },
    {
      "id": "p2xmz3",
      "url": "https://wallhaven.cc/w/p2xmz3",
      "short_url": "https://whvn.cc/p2xmz3",
      "views": 2578,
      "favorites": 12,
      "source": "",
      "purity": "sfw",
      "category": "anime",
      "dimension_x": 2844,
      "dimension_y": 1600,
      "resolution": "2844x1600",
      "ratio": "1.78",
      "file_size": 958478,
      "file_type": "image/png",
      "created_at": "2017-08-09 13:59:43",
      "colors": [
        "#ffffff",
        "#e7d8b1",
        "#cccccc",
        "#999999",
        "#424153"
      ],
      "path": "https://w.wallhaven.cc/full/p2/wallhaven-p2xmz3.png",
      "thumbs": {
        "large": "https://th.wallhaven.cc/lg/p2/p2xmz3.jpg",
        "original": "https://th.wallhaven.cc/orig/p2/p2xmz3.jpg",
        "small": "https://th.wallhaven.cc/small/p2/p2xmz3.jpg"
      }
    },
    {
      "id": "odw9dm",
      "url": "https://wallhaven.cc/w/odw9dm",
      "short_url": "https://whvn.cc/odw9dm",
      "views": 2118,
      "favorites": 4,
      "source": "",
      "purity": "sfw",
      "category": "anime",
      "dimension_x": 1920,
      "dimension_y": 1080,
      "resolution": "1920x1080",
      "ratio": "1.78",
      "file_size": 333834,
      "file_type": "image/png",
      "created_at": "2017-05-02 16:00:06",
      "colors": [
        "#000000",
        "#663300",
        "#996633",
        "#cc6633",
        "#fdadc7"
      ],
      "path": "https://w.wallhaven.cc/full/od/wallhaven-odw9dm.png",
      "thumbs": {
        "large": "https://th.wallhaven.cc/lg/od/odw9dm.jpg",
        "original": "https://th.wallhaven.cc/orig/od/odw9dm.jpg",
        "small": "https://th.wallhaven.cc/small/od/odw9dm.jpg"
      }
    }
  ],
  "meta": {
    "current_page": 1,
    "last_page": 1272,
    "per_page": 24,
    "total": 30523,
    "query": "anime girl",
    "seed": "OIhBhP"
  }
}
